…
# Load required packages
library(tidyr)

# Convert clean_carrots to long format
long_carrots <- clean_carrots %>% 
  pivot_longer(cols = c(Crispness, Sweetness, Bitterness),
               names_to = 'Attributes',
               values_to = 'Ratings')

Take a look at the new dataset.

print(long_carrots)

## # A tibble: 618 x 6
##    Product Age_group  Sex    Preference Attributes Ratings
##    <fct>   <ord>      <fct>       <int> <chr>        <int>
##  1 Bolero  > 61 years Female          4 Crispness        2
##  2 Bolero  > 61 years Female          4 Sweetness        2
##  3 Bolero  > 61 years Female          4 Bitterness       4
##  4 Yukon   > 61 years Female          4 Crispness        3
##  5 Yukon   > 61 years Female          4 Sweetness        2
##  6 Yukon   > 61 years Female          4 Bitterness       3
##  7 Bolero  > 61 years Male            6 Crispness        5
##  8 Bolero  > 61 years Male            6 Sweetness        5
##  9 Bolero  > 61 years Male            6 Bitterness       1
## 10 Yukon   > 61 years Male            6 Crispness        3
## # … with 608 more rows
…
We now have a new dataframe with two columns, ‘Product’ and ‘data’. ‘Product’ contains the grouping variable (carrot type), while ‘data’ contain the rest of the data as a list column.

If we compare the original dataframe with the nested dataframe they look like this:

Original dataframe

print(long_carrots)

## # A tibble: 618 x 6
##    Product Age_group  Sex    Preference Attributes Ratings
##    <fct>   <ord>      <fct>       <int> <chr>        <int>
##  1 Bolero  > 61 years Female          4 Crispness        2
##  2 Bolero  > 61 years Female          4 Sweetness        2
##  3 Bolero  > 61 years Female          4 Bitterness       4
##  4 Yukon   > 61 years Female          4 Crispness        3
##  5 Yukon   > 61 years Female          4 Sweetness        2
##  6 Yukon   > 61 years Female          4 Bitterness       3
##  7 Bolero  > 61 years Male            6 Crispness        5
##  8 Bolero  > 61 years Male            6 Sweetness        5
##  9 Bolero  > 61 years Male            6 Bitterness       1
## 10 Yukon   > 61 years Male            6 Crispness        3
## # … with 608 more rows
…
print(diced_carrots)

## # A tibble: 2 x 2
## # Groups:   Product [6]
##   Product data              
##   <fct>   <list>            
## 1 Bolero  <tibble [309 × 5]>
## 2 Yukon   <tibble [309 × 5]>

If we look inside the two rows of the list-column, we find the data associated with each of the carrot types.

print(diced_carrots$data)

## [[1]]
## # A tibble: 309 x 5
##    Age_group   Sex    Preference Attributes Ratings
##    <ord>       <fct>       <int> <chr>        <int>
##  1 > 61 years  Female          4 Crispness        2
##  2 > 61 years  Female          4 Sweetness        2
##  3 > 61 years  Female          4 Bitterness       4
##  4 > 61 years  Male            6 Crispness        5
##  5 > 61 years  Male            6 Sweetness        5
##  6 > 61 years  Male            6 Bitterness       1
##  7 26-40 years Male            4 Crispness        6
##  8 26-40 years Male            4 Sweetness        3
##  9 26-40 years Male            4 Bitterness       3
## 10 41-60 years Male            5 Crispness        4
## # … with 299 more rows
## 
## [[2]]
## # A tibble: 309 x 5
##    Age_group   Sex    Preference Attributes Ratings
##    <ord>       <fct>       <int> <chr>        <int>
##  1 > 61 years  Female          4 Crispness        3
##  2 > 61 years  Female          4 Sweetness        2
##  3 > 61 years  Female          4 Bitterness       3
##  4 > 61 years  Male            6 Crispness        3
##  5 > 61 years  Male            6 Sweetness        5
##  6 > 61 years  Male            6 Bitterness       1
##  7 26-40 years Male            5 Crispness        5
##  8 26-40 years Male            5 Sweetness        4
##  9 26-40 years Male            5 Bitterness       3
## 10 41-60 years Male            4 Crispness        3
## # … with 299 more rows
…
